<svg xmlns="http://www.w3.org/2000/svg" xmlns:xlink="http://www.w3.org/1999/xlink" width="115.253mm" height="115.253mm" viewBox="3990 2990 181.5 181.5"><title></title><style type="text/css">
*[layerid="1"] {stroke:#FF0000;fill:#FF0000;}
*[layerid="2"] {stroke:#0000FF;fill:#0000FF;}
*[layerid="3"] {stroke:#FFCC00;fill:#FFCC00;}
*[layerid="4"] {stroke:#66CC33;fill:#66CC33;}
*[layerid="5"] {stroke:#808080;fill:#808080;}
*[layerid="6"] {stroke:#800000;fill:#800000;}
*[layerid="7"] {stroke:#800080;fill:#800080;stroke-opacity:0.7;fill-opacity:0.7;}
*[layerid="8"] {stroke:#AA00FF;fill:#AA00FF;stroke-opacity:0.7;fill-opacity:0.7;}
*[layerid="9"] {stroke:#6464FF;fill:#6464FF;}
*[layerid="10"] {stroke:#FF00FF;fill:#FF00FF;}
*[layerid="11"] {stroke:#C0C0C0;fill:#C0C0C0;}
*[layerid="12"] {stroke:#FFFFFF;fill:#FFFFFF;}
*[layerid="13"] {stroke:#33CC99;fill:#33CC99;}
*[layerid="14"] {stroke:#5555FF;fill:#5555FF;}
*[layerid="15"] {stroke:#F022F0;fill:#F022F0;}
*[layerid="19"] {stroke:#66CCFF;fill:#66CCFF;}
*[layerid="21"] {stroke:#999966;fill:#999966;}
*[layerid="22"] {stroke:#008000;fill:#008000;}
*[layerid="23"] {stroke:#00FF00;fill:#00FF00;}
*[layerid="24"] {stroke:#BC8E00;fill:#BC8E00;}
*[layerid="25"] {stroke:#70DBFA;fill:#70DBFA;}
*[layerid="26"] {stroke:#00CC66;fill:#00CC66;}
*[layerid="27"] {stroke:#9966FF;fill:#9966FF;}
*[layerid="28"] {stroke:#800080;fill:#800080;}
*[layerid="29"] {stroke:#008080;fill:#008080;}
*[layerid="30"] {stroke:#15935F;fill:#15935F;}
*[layerid="31"] {stroke:#000080;fill:#000080;}
*[layerid="32"] {stroke:#00B400;fill:#00B400;}
*[layerid="33"] {stroke:#2E4756;fill:#2E4756;}
*[layerid="34"] {stroke:#99842F;fill:#99842F;}
*[layerid="35"] {stroke:#FFFFAA;fill:#FFFFAA;}
*[layerid="36"] {stroke:#99842F;fill:#99842F;}
*[layerid="37"] {stroke:#2E4756;fill:#2E4756;}
*[layerid="38"] {stroke:#3535FF;fill:#3535FF;}
*[layerid="39"] {stroke:#8000BC;fill:#8000BC;}
*[layerid="40"] {stroke:#43AE5F;fill:#43AE5F;}
*[layerid="41"] {stroke:#C3ECCE;fill:#C3ECCE;}
*[layerid="42"] {stroke:#728978;fill:#728978;}
*[layerid="43"] {stroke:#39503F;fill:#39503F;}
*[layerid="44"] {stroke:#0C715D;fill:#0C715D;}
*[layerid="45"] {stroke:#5A8A80;fill:#5A8A80;}
*[layerid="46"] {stroke:#2B937E;fill:#2B937E;}
*[layerid="47"] {stroke:#23999D;fill:#23999D;}
*[layerid="48"] {stroke:#45B4E3;fill:#45B4E3;}
*[layerid="49"] {stroke:#215DA1;fill:#215DA1;}
*[layerid="50"] {stroke:#4564D7;fill:#4564D7;}
*[layerid="51"] {stroke:#6969E9;fill:#6969E9;}
*[layerid="52"] {stroke:#9069E9;fill:#9069E9;}
*[layerid="99"] {stroke:#00CCCC;fill:#00CCCC;}
*[layerid="100"] {stroke:#CC9999;fill:#CC9999;}
*[layerid="Hole"] {stroke:#222222;fill:#222222;}
*[layerid="DRCError"] {stroke:#FAD609;fill:#FAD609;}
*[fill="none"] {fill: none;}
*[stroke="none"] {stroke: none;}
path, polyline, polygon, line {stroke-linecap:round;}
g[c_partid="part_pad"][layerid="1"] ellipse:not([c_etype="pad_outer"]) {fill:#FF0000;}
g[c_partid="part_pad"][layerid="1"] polygon:not([c_etype="pad_outer"]) {fill:#FF0000;}
g[c_partid="part_pad"][layerid="1"] polyline:not([c_etype="pad_outer"]) {stroke:#FF0000;}
g[c_partid="part_pad"][layerid="2"] ellipse:not([c_etype="pad_outer"]) {fill:#0000FF;}
g[c_partid="part_pad"][layerid="2"] polygon:not([c_etype="pad_outer"]) {fill:#0000FF;}
g[c_partid="part_pad"][layerid="2"] polyline:not([c_etype="pad_outer"]) {stroke:#0000FF;}
g[c_partid="part_pad"][layerid="11"] ellipse:not([c_etype="pad_outer"]) {fill:#C0C0C0;}
g[c_partid="part_pad"][layerid="11"] polygon:not([c_etype="pad_outer"]) {fill:#C0C0C0;}
g[c_partid="part_pad"][layerid="11"] polyline:not([c_etype="pad_outer"]) {stroke:#C0C0C0;}
g[c_partid="part_pad"][layerid="11"] circle {fill:#222222;}
g[c_partid="part_pad"][layerid="11"] > polyline:nth-of-type(2) {stroke:#222222;}
g[c_partid="part_pad"][layerid="11"][c_shape="ELLIPSE"]  polyline:nth-last-of-type(1) {stroke:#222222;}
g[c_partid="part_pad"][layerid="11"][c_shape="RECT"]  polyline:nth-last-of-type(1) {stroke:#222222;}
g[c_partid="part_pad"][layerid="11"][c_shape="POLYGON"]  polyline:nth-last-of-type(1) {stroke:#222222;}
g[c_partid="part_via"] > * + circle, #gCurParts g[c_partid="part_via"] > * + circle {fill:#222222;}
g[c_partid="part_pad"] > polygon[c_etype="pad_outer"], #gCurParts g[c_partid="part_pad"] > polygon[c_etype="pad_outer"] {stroke-linejoin: miter;stroke-miterlimit: 100;}
g[c_partid="part_hole"] > circle {fill: #222222;}path, polyline, polygon {stroke-linejoin:round;}
rect, circle, ellipse, polyline, line, polygon, path {shape-rendering:crispEdges;}
</style>
<rect x="3990" y="2990" width="181.5" height="181.5" fill="#000000" stroke="none"/><g c_partid="part_pad" c_etype="pinpart" c_origin="4005.906,3022.165" layerid="11" number="1" net="X0Y0" plated ="Y"  id="gge36054" locked="0" c_rotation="270" c_width="7.0866" c_height="7.0866" title="X0Y0" c_shape="RECT" pasteexpansion="0" solderexpansion="0.4"><polygon points="4009.4488 3018.6221 4009.4488 3025.7087 4002.3622 3025.7087 4002.3622 3018.6221" layerid="8" stroke-width="0.8" c_etype="pad_outer"/></g><g c_partid="part_pad" c_etype="pinpart" c_origin="4005.906,3032.165" layerid="11" number="2" net="X1Y1" plated ="Y"  id="gge36059" locked="0" c_rotation="270" c_width="7.0866" c_height="7.0866" title="X1Y1" c_shape="ELLIPSE" pasteexpansion="0" solderexpansion="0.4"><ellipse cx="4005.906" cy="3032.165" rx="3.9433" ry="3.9433" layerid="8" stroke-width="0" c_etype="pad_outer"/></g><g c_partid="part_pad" c_etype="pinpart" c_origin="4005.906,3042.165" layerid="11" number="3" net="X2Y2" plated ="Y"  id="gge36064" locked="0" c_rotation="270" c_width="7.0866" c_height="7.0866" title="X2Y2" c_shape="ELLIPSE" pasteexpansion="0" solderexpansion="0.4"><ellipse cx="4005.906" cy="3042.165" rx="3.9433" ry="3.9433" layerid="8" stroke-width="0" c_etype="pad_outer"/></g><g c_partid="part_pad" c_etype="pinpart" c_origin="4005.906,3052.165" layerid="11" number="4" net="X3Y3" plated ="Y"  id="gge36069" locked="0" c_rotation="270" c_width="7.0866" c_height="7.0866" title="X3Y3" c_shape="ELLIPSE" pasteexpansion="0" solderexpansion="0.4"><ellipse cx="4005.906" cy="3052.165" rx="3.9433" ry="3.9433" layerid="8" stroke-width="0" c_etype="pad_outer"/></g><g c_partid="part_pad" c_etype="pinpart" c_origin="4005.906,3062.165" layerid="11" number="5" net="X4Y4" plated ="Y"  id="gge36074" locked="0" c_rotation="270" c_width="7.0866" c_height="7.0866" title="X4Y4" c_shape="ELLIPSE" pasteexpansion="0" solderexpansion="0.4"><ellipse cx="4005.906" cy="3062.165" rx="3.9433" ry="3.9433" layerid="8" stroke-width="0" c_etype="pad_outer"/></g><g c_partid="part_pad" c_etype="pinpart" c_origin="4005.906,3072.165" layerid="11" number="6" net="X5Y5" plated ="Y"  id="gge36079" locked="0" c_rotation="270" c_width="7.0866" c_height="7.0866" title="X5Y5" c_shape="ELLIPSE" pasteexpansion="0" solderexpansion="0.4"><ellipse cx="4005.906" cy="3072.165" rx="3.9433" ry="3.9433" layerid="8" stroke-width="0" c_etype="pad_outer"/></g><g c_partid="part_pad" c_etype="pinpart" c_origin="4005.906,3082.165" layerid="11" number="7" net="VCC" plated ="Y"  id="gge36084" locked="0" c_rotation="270" c_width="7.0866" c_height="7.0866" title="VCC" c_shape="ELLIPSE" pasteexpansion="0" solderexpansion="0.4"><ellipse cx="4005.906" cy="3082.165" rx="3.9433" ry="3.9433" layerid="8" stroke-width="0" c_etype="pad_outer"/></g><g c_partid="part_pad" c_etype="pinpart" c_origin="4005.906,3092.165" layerid="11" number="8" net="GND" plated ="Y"  id="gge36089" locked="0" c_rotation="270" c_width="7.0866" c_height="7.0866" title="GND" c_shape="ELLIPSE" pasteexpansion="0" solderexpansion="0.4"><ellipse cx="4005.906" cy="3092.165" rx="3.9433" ry="3.9433" layerid="8" stroke-width="0" c_etype="pad_outer"/></g><g c_partid="part_pad" c_etype="pinpart" c_origin="4125.98,3129.92" layerid="11" number="1" net="CANL" plated ="Y"  id="gge35769" locked="0" c_rotation="0" c_width="6.2992" c_height="6.2992" title="CANL" c_shape="ELLIPSE" pasteexpansion="0" solderexpansion="0.4"><ellipse cx="4125.98" cy="3129.92" rx="3.5496" ry="3.5496" layerid="8" stroke-width="0" c_etype="pad_outer"/></g><g c_partid="part_pad" c_etype="pinpart" c_origin="4135.823,3129.92" layerid="11" number="2" net="CANH" plated ="Y"  id="gge35774" locked="0" c_rotation="0" c_width="6.2992" c_height="6.2992" title="CANH" c_shape="ELLIPSE" pasteexpansion="0" solderexpansion="0.4"><ellipse cx="4135.823" cy="3129.92" rx="3.5496" ry="3.5496" layerid="8" stroke-width="0" c_etype="pad_outer"/></g><g c_partid="part_pad" c_etype="pinpart" c_origin="4135.823,3149.605" layerid="11" number="2" net="CANH" plated ="Y"  id="gge35779" locked="0" c_rotation="0" c_width="6.2992" c_height="6.2992" title="CANH" c_shape="ELLIPSE" pasteexpansion="0" solderexpansion="0.4"><ellipse cx="4135.823" cy="3149.605" rx="3.5496" ry="3.5496" layerid="8" stroke-width="0" c_etype="pad_outer"/></g><g c_partid="part_pad" c_etype="pinpart" c_origin="4125.98,3149.605" layerid="11" number="1" net="CANL" plated ="Y"  id="gge35784" locked="0" c_rotation="0" c_width="6.2992" c_height="6.2992" title="CANL" c_shape="ELLIPSE" pasteexpansion="0" solderexpansion="0.4"><ellipse cx="4125.98" cy="3149.605" rx="3.5496" ry="3.5496" layerid="8" stroke-width="0" c_etype="pad_outer"/></g><g c_partid="part_pad" c_etype="pinpart" c_origin="4104.327,3129.92" layerid="11" number="1" net="+5V" plated ="Y"  id="gge35798" locked="0" c_rotation="0" c_width="6.2992" c_height="6.2992" title="+5V" c_shape="ELLIPSE" pasteexpansion="0" solderexpansion="0.4"><ellipse cx="4104.327" cy="3129.92" rx="3.5496" ry="3.5496" layerid="8" stroke-width="0" c_etype="pad_outer"/></g><g c_partid="part_pad" c_etype="pinpart" c_origin="4114.17,3129.92" layerid="11" number="2" net="GND" plated ="Y"  id="gge35803" locked="0" c_rotation="0" c_width="6.2992" c_height="6.2992" title="GND" c_shape="ELLIPSE" pasteexpansion="0" solderexpansion="0.4"><ellipse cx="4114.17" cy="3129.92" rx="3.5496" ry="3.5496" layerid="8" stroke-width="0" c_etype="pad_outer"/></g><g c_partid="part_pad" c_etype="pinpart" c_origin="4114.17,3149.605" layerid="11" number="2" net="GND" plated ="Y"  id="gge35808" locked="0" c_rotation="0" c_width="6.2992" c_height="6.2992" title="GND" c_shape="ELLIPSE" pasteexpansion="0" solderexpansion="0.4"><ellipse cx="4114.17" cy="3149.605" rx="3.5496" ry="3.5496" layerid="8" stroke-width="0" c_etype="pad_outer"/></g><g c_partid="part_pad" c_etype="pinpart" c_origin="4104.327,3149.605" layerid="11" number="1" net="+5V" plated ="Y"  id="gge35813" locked="0" c_rotation="0" c_width="6.2992" c_height="6.2992" title="+5V" c_shape="ELLIPSE" pasteexpansion="0" solderexpansion="0.4"><ellipse cx="4104.327" cy="3149.605" rx="3.5496" ry="3.5496" layerid="8" stroke-width="0" c_etype="pad_outer"/></g><g c_partid="part_pad" c_etype="pinpart" c_origin="4082.673,3129.92" layerid="11" number="1" net="CANL" plated ="Y"  id="gge35827" locked="0" c_rotation="0" c_width="6.2992" c_height="6.2992" title="CANL" c_shape="ELLIPSE" pasteexpansion="0" solderexpansion="0.4"><ellipse cx="4082.673" cy="3129.92" rx="3.5496" ry="3.5496" layerid="8" stroke-width="0" c_etype="pad_outer"/></g><g c_partid="part_pad" c_etype="pinpart" c_origin="4092.516,3129.92" layerid="11" number="2" net="CANH" plated ="Y"  id="gge35832" locked="0" c_rotation="0" c_width="6.2992" c_height="6.2992" title="CANH" c_shape="ELLIPSE" pasteexpansion="0" solderexpansion="0.4"><ellipse cx="4092.516" cy="3129.92" rx="3.5496" ry="3.5496" layerid="8" stroke-width="0" c_etype="pad_outer"/></g><g c_partid="part_pad" c_etype="pinpart" c_origin="4092.516,3149.605" layerid="11" number="2" net="CANH" plated ="Y"  id="gge35837" locked="0" c_rotation="0" c_width="6.2992" c_height="6.2992" title="CANH" c_shape="ELLIPSE" pasteexpansion="0" solderexpansion="0.4"><ellipse cx="4092.516" cy="3149.605" rx="3.5496" ry="3.5496" layerid="8" stroke-width="0" c_etype="pad_outer"/></g><g c_partid="part_pad" c_etype="pinpart" c_origin="4082.673,3149.605" layerid="11" number="1" net="CANL" plated ="Y"  id="gge35842" locked="0" c_rotation="0" c_width="6.2992" c_height="6.2992" title="CANL" c_shape="ELLIPSE" pasteexpansion="0" solderexpansion="0.4"><ellipse cx="4082.673" cy="3149.605" rx="3.5496" ry="3.5496" layerid="8" stroke-width="0" c_etype="pad_outer"/></g><g c_partid="part_pad" c_etype="pinpart" c_origin="4061.02,3129.92" layerid="11" number="1" net="+5V" plated ="Y"  id="gge35856" locked="0" c_rotation="0" c_width="6.2992" c_height="6.2992" title="+5V" c_shape="ELLIPSE" pasteexpansion="0" solderexpansion="0.4"><ellipse cx="4061.02" cy="3129.92" rx="3.5496" ry="3.5496" layerid="8" stroke-width="0" c_etype="pad_outer"/></g><g c_partid="part_pad" c_etype="pinpart" c_origin="4070.863,3129.92" layerid="11" number="2" net="GND" plated ="Y"  id="gge35861" locked="0" c_rotation="0" c_width="6.2992" c_height="6.2992" title="GND" c_shape="ELLIPSE" pasteexpansion="0" solderexpansion="0.4"><ellipse cx="4070.863" cy="3129.92" rx="3.5496" ry="3.5496" layerid="8" stroke-width="0" c_etype="pad_outer"/></g><g c_partid="part_pad" c_etype="pinpart" c_origin="4070.863,3149.605" layerid="11" number="2" net="GND" plated ="Y"  id="gge35866" locked="0" c_rotation="0" c_width="6.2992" c_height="6.2992" title="GND" c_shape="ELLIPSE" pasteexpansion="0" solderexpansion="0.4"><ellipse cx="4070.863" cy="3149.605" rx="3.5496" ry="3.5496" layerid="8" stroke-width="0" c_etype="pad_outer"/></g><g c_partid="part_pad" c_etype="pinpart" c_origin="4061.02,3149.605" layerid="11" number="1" net="+5V" plated ="Y"  id="gge35871" locked="0" c_rotation="0" c_width="6.2992" c_height="6.2992" title="+5V" c_shape="ELLIPSE" pasteexpansion="0" solderexpansion="0.4"><ellipse cx="4061.02" cy="3149.605" rx="3.5496" ry="3.5496" layerid="8" stroke-width="0" c_etype="pad_outer"/></g><path d="M 4016.9 3160.4073 A 0.4 0.4 0 0 1 4016.5 3160.0073 L 4016.5 3148.5 4012.5 3144 4001.41 3144 A 0.4 0.4 0 0 1 4001.01 3143.6 L 4001.01 3094.24522 A 0.4 0.4 0 0 1 4001.0821 3094.01614 0.4 0.4 0 0 1 4001.01 3093.78705 L 4001.01 3090.54375 A 0.4 0.4 0 0 1 4001.0821 3090.31466 0.4 0.4 0 0 1 4001.01 3090.08558 L 4001.01 3084.24522 A 0.4 0.4 0 0 1 4001.41 3083.84522 0.4 0.4 0 0 1 4001.77303 3084.07727 4.5533 4.5533 0 0 0 4005.9055 3086.7187 4.5533 4.5533 0 0 0 4010.4588 3082.1654 4.5533 4.5533 0 0 0 4005.9055 3077.6121 4.5533 4.5533 0 0 0 4001.77303 3080.25353 L 4001.77303 3080.25353 A 0.4 0.4 0 0 1 4001.41 3080.48558 0.4 0.4 0 0 1 4001.01 3080.08558 L 4001.01 3074.24522 A 0.4 0.4 0 0 1 4001.41 3073.84522 0.4 0.4 0 0 1 4001.77303 3074.07727 4.5533 4.5533 0 0 0 4005.9055 3076.7187 4.5533 4.5533 0 0 0 4010.4588 3072.1654 4.5533 4.5533 0 0 0 4005.9055 3067.6121 4.5533 4.5533 0 0 0 4001.77303 3070.25353 L 4001.77303 3070.25353 A 0.4 0.4 0 0 1 4001.41 3070.48558 0.4 0.4 0 0 1 4001.01 3070.08558 L 4001.01 3064.24522 A 0.4 0.4 0 0 1 4001.41 3063.84522 0.4 0.4 0 0 1 4001.77303 3064.07727 4.5533 4.5533 0 0 0 4005.9055 3066.7187 4.5533 4.5533 0 0 0 4010.4588 3062.1654 4.5533 4.5533 0 0 0 4005.9055 3057.6121 4.5533 4.5533 0 0 0 4001.77303 3060.25353 L 4001.77303 3060.25353 A 0.4 0.4 0 0 1 4001.41 3060.48558 0.4 0.4 0 0 1 4001.01 3060.08558 L 4001.01 3054.24522 A 0.4 0.4 0 0 1 4001.41 3053.84522 0.4 0.4 0 0 1 4001.77303 3054.07727 4.5533 4.5533 0 0 0 4005.9055 3056.7187 4.5533 4.5533 0 0 0 4010.4588 3052.1654 4.5533 4.5533 0 0 0 4005.9055 3047.6121 4.5533 4.5533 0 0 0 4001.77303 3050.25353 L 4001.77303 3050.25353 A 0.4 0.4 0 0 1 4001.41 3050.48558 0.4 0.4 0 0 1 4001.01 3050.08558 L 4001.01 3044.24522 A 0.4 0.4 0 0 1 4001.41 3043.84522 0.4 0.4 0 0 1 4001.77303 3044.07727 4.5533 4.5533 0 0 0 4005.9055 3046.7187 4.5533 4.5533 0 0 0 4010.4588 3042.1654 4.5533 4.5533 0 0 0 4005.9055 3037.6121 4.5533 4.5533 0 0 0 4001.77303 3040.25353 L 4001.77303 3040.25353 A 0.4 0.4 0 0 1 4001.41 3040.48558 0.4 0.4 0 0 1 4001.01 3040.08558 L 4001.01 3034.24522 A 0.4 0.4 0 0 1 4001.41 3033.84522 0.4 0.4 0 0 1 4001.77303 3034.07727 4.5533 4.5533 0 0 0 4005.9055 3036.7187 4.5533 4.5533 0 0 0 4010.4588 3032.1654 4.5533 4.5533 0 0 0 4005.9055 3027.6121 4.5533 4.5533 0 0 0 4001.77303 3030.25353 L 4001.77303 3030.25353 A 0.4 0.4 0 0 1 4001.41 3030.48558 0.4 0.4 0 0 1 4001.01 3030.08558 L 4001.01 3026.74861 A 0.4 0.4 0 0 1 4001.41 3026.34861 0.4 0.4 0 0 1 4001.68013 3026.4536 1.01 1.01 0 0 0 4002.3622 3026.7187 L 4002.3622 3026.7187 4009.4488 3026.7187 4009.4488 3026.7187 A 1.01 1.01 0 0 0 4010.4588 3025.7087 L 4010.4588 3025.7087 4010.4588 3018.6221 4010.4588 3018.6221 A 1.01 1.01 0 0 0 4009.4488 3017.6121 L 4009.4488 3017.6121 4002.3622 3017.6121 4002.3622 3017.6121 A 1.01 1.01 0 0 0 4001.68013 3017.8772 0.4 0.4 0 0 1 4001.41 3017.98219 0.4 0.4 0 0 1 4001.01 3017.58219 L 4001.01 3015.9 A 0.4 0.4 0 0 1 4001.41 3015.5 L 4013 3015.5 4016 3012.5 4016 3001.41 A 0.4 0.4 0 0 1 4016.4 3001.01 L 4144.1 3001.01 A 0.4 0.4 0 0 1 4144.5 3001.41 L 4144.5 3012.5 4148.5 3017 4160.0073 3017 A 0.4 0.4 0 0 1 4160.4073 3017.4 L 4160.4073 3143.6 A 0.4 0.4 0 0 1 4160.0073 3144 L 4147 3144 4143 3148 4143 3160.0073 A 0.4 0.4 0 0 1 4142.6 3160.4073 L 4016.9 3160.4073 Z M 4024.365 3131.398 A 2.21 2.21 0 0 0 4026.575 3133.608 2.21 2.21 0 0 0 4028.73392 3131.87042 0.4 0.4 0 0 1 4028.84183 3131.67308 L 4090.83785 3069.67705 A 1.7974 1.7974 0 0 0 4091.3643 3068.4061 L 4091.3643 3039.79454 A 0.4 0.4 0 0 1 4091.42755 3039.57867 2.21 2.21 0 0 0 4091.777 3038.386 2.21 2.21 0 0 0 4090.71282 3036.49624 0.4 0.4 0 0 1 4090.52021 3036.1542 0.4 0.4 0 0 1 4090.92021 3035.7542 L 4106.0435 3035.7542 A 1.7974 1.7974 0 0 0 4107.31448 3035.22773 L 4107.31448 3035.22773 4115.62737 3026.91456 A 0.4 0.4 0 0 1 4115.91021 3026.7974 L 4140.59162 3026.7974 A 0.4 0.4 0 0 1 4140.80746 3026.86063 L 4140.80746 3026.86063 A 2.21 2.21 0 0 0 4142 3027.21 2.21 2.21 0 0 0 4144.21 3025 2.21 2.21 0 0 0 4142 3022.79 2.21 2.21 0 0 0 4140.80746 3023.13937 0.4 0.4 0 0 1 4140.59162 3023.2026 L 4115 3023.2026 A 1.7974 1.7974 0 0 0 4113.72902 3023.72907 L 4105.41613 3032.04224 A 0.4 0.4 0 0 1 4105.13329 3032.1594 L 4085.1377 3032.1594 A 1.7974 1.7974 0 0 0 4083.86675 3032.68585 L 4069.74615 3046.80644 A 0.4 0.4 0 0 1 4069.46331 3046.9236 L 4054.06638 3046.9236 A 0.4 0.4 0 0 1 4053.85054 3046.86037 2.21 2.21 0 0 0 4052.658 3046.511 2.21 2.21 0 0 0 4050.448 3048.721 2.21 2.21 0 0 0 4052.658 3050.931 2.21 2.21 0 0 0 4053.85054 3050.58163 0.4 0.4 0 0 1 4054.06638 3050.5184 L 4070.3735 3050.5184 A 1.7974 1.7974 0 0 0 4071.64445 3049.99195 L 4085.76505 3035.87136 A 0.4 0.4 0 0 1 4086.04789 3035.7542 L 4088.21379 3035.7542 A 0.4 0.4 0 0 1 4088.61379 3036.1542 0.4 0.4 0 0 1 4088.42118 3036.49624 2.21 2.21 0 0 0 4087.357 3038.386 2.21 2.21 0 0 0 4087.70628 3039.5784 L 4087.70628 3039.5784 A 0.4 0.4 0 0 1 4087.7695 3039.79422 L 4087.7695 3067.49591 A 0.4 0.4 0 0 1 4087.65234 3067.77875 L 4026.29992 3129.13117 A 0.4 0.4 0 0 1 4026.10258 3129.23908 L 4026.10258 3129.23908 A 2.21 2.21 0 0 0 4024.365 3131.398 Z M 4052.658 3045.517 A 2.21 2.21 0 0 0 4053.85054 3045.16763 0.4 0.4 0 0 1 4054.06638 3045.1044 L 4064.9606 3045.1044 A 1.7974 1.7974 0 0 0 4066.23155 3044.57795 L 4079.89495 3030.91456 A 0.4 0.4 0 0 1 4080.17779 3030.7974 L 4098.09162 3030.7974 A 0.4 0.4 0 0 1 4098.30746 3030.86063 L 4098.30746 3030.86063 A 2.21 2.21 0 0 0 4099.5 3031.21 2.21 2.21 0 0 0 4101.71 3029 2.21 2.21 0 0 0 4099.97242 3026.84108 L 4099.97242 3026.84108 A 0.4 0.4 0 0 1 4099.77508 3026.73317 L 4096.89486 3023.85295 A 0.4 0.4 0 0 1 4096.7777 3023.57011 L 4096.7777 3011.74291 A 0.4 0.4 0 0 1 4096.84089 3011.52714 2.21 2.21 0 0 0 4097.19 3010.335 2.21 2.21 0 0 0 4094.98 3008.125 2.21 2.21 0 0 0 4092.77 3010.335 2.21 2.21 0 0 0 4093.11962 3011.52793 L 4093.11962 3011.52793 A 0.4 0.4 0 0 1 4093.1829 3011.74385 L 4093.1829 3024.4803 A 1.7974 1.7974 0 0 0 4093.70935 3025.75125 L 4094.47785 3026.51976 A 0.4 0.4 0 0 1 4094.59501 3026.8026 0.4 0.4 0 0 1 4094.19501 3027.2026 L 4079.2676 3027.2026 A 1.7974 1.7974 0 0 0 4077.99665 3027.72905 L 4064.33325 3041.39244 A 0.4 0.4 0 0 1 4064.05041 3041.5096 L 4054.06638 3041.5096 A 0.4 0.4 0 0 1 4053.85054 3041.44637 2.21 2.21 0 0 0 4052.658 3041.097 2.21 2.21 0 0 0 4050.448 3043.307 2.21 2.21 0 0 0 4052.658 3045.517 Z M 4131.4 3139.0974 A 1.7974 1.7974 0 0 0 4132.67095 3138.57095 L 4137.09095 3134.15095 A 1.7974 1.7974 0 0 0 4137.31617 3133.87606 0.4 0.4 0 0 1 4137.48888 3133.73122 L 4137.48888 3133.73122 A 4.1596 4.1596 0 0 0 4139.9821 3129.92 4.1596 4.1596 0 0 0 4135.8225 3125.7604 4.1596 4.1596 0 0 0 4131.6629 3129.92 4.1596 4.1596 0 0 0 4132.81355 3132.79202 0.4 0.4 0 0 1 4132.9242 3133.0682 0.4 0.4 0 0 1 4132.80705 3133.35105 L 4130.77265 3135.38544 A 0.4 0.4 0 0 1 4130.48981 3135.5026 L 4097.85874 3135.5026 A 0.4 0.4 0 0 1 4097.57622 3135.38576 L 4095.53427 3133.34843 A 0.4 0.4 0 0 1 4095.4168 3133.06527 0.4 0.4 0 0 1 4095.5272 3132.78934 L 4095.5272 3132.78934 A 4.1596 4.1596 0 0 0 4096.6753 3129.92 4.1596 4.1596 0 0 0 4092.5157 3125.7604 4.1596 4.1596 0 0 0 4088.3561 3129.92 4.1596 4.1596 0 0 0 4090.85163 3133.73224 0.4 0.4 0 0 1 4091.02444 3133.87696 L 4091.02444 3133.87696 A 1.7974 1.7974 0 0 0 4091.25048 3134.15239 L 4095.68048 3138.57239 4095.68048 3138.57239 A 1.7974 1.7974 0 0 0 4096.95 3139.0974 L 4131.4 3139.0974 Z M 4082.6732 3153.7646 A 4.1596 4.1596 0 0 0 4086.8328 3149.605 4.1596 4.1596 0 0 0 4085.45981 3146.51679 0.4 0.4 0 0 1 4085.32778 3146.21981 0.4 0.4 0 0 1 4085.44494 3145.93697 L 4086.74735 3144.63456 A 0.4 0.4 0 0 1 4087.03019 3144.5174 L 4121.13981 3144.5174 A 0.4 0.4 0 0 1 4121.42265 3144.63456 L 4122.96333 3146.17523 A 0.4 0.4 0 0 1 4123.08048 3146.45808 0.4 0.4 0 0 1 4122.96994 3146.73415 L 4122.96994 3146.73415 A 4.1596 4.1596 0 0 0 4121.8204 3149.605 4.1596 4.1596 0 0 0 4125.98 3153.7646 4.1596 4.1596 0 0 0 4130.1396 3149.605 4.1596 4.1596 0 0 0 4127.6453 3145.7933 0.4 0.4 0 0 1 4127.47315 3145.64943 L 4127.47315 3145.64943 A 1.7974 1.7974 0 0 0 4127.25095 3145.37905 L 4123.32095 3141.44905 A 1.7974 1.7974 0 0 0 4122.05 3140.9226 L 4086.12 3140.9226 A 1.7974 1.7974 0 0 0 4084.84905 3141.44905 L 4081.40905 3144.88905 A 1.7974 1.7974 0 0 0 4080.9505 3145.67064 0.4 0.4 0 0 1 4080.7505 3145.91644 4.1596 4.1596 0 0 0 4078.5136 3149.605 4.1596 4.1596 0 0 0 4082.6732 3153.7646 Z M 4056.8604 3129.92 A 4.1596 4.1596 0 0 0 4061.02 3134.0796 4.1596 4.1596 0 0 0 4065.1796 3129.92 4.1596 4.1596 0 0 0 4061.02 3125.7604 4.1596 4.1596 0 0 0 4056.8604 3129.92 Z M 4135.8225 3153.7646 A 4.1596 4.1596 0 0 0 4139.9821 3149.605 4.1596 4.1596 0 0 0 4135.8225 3145.4454 4.1596 4.1596 0 0 0 4131.6629 3149.605 4.1596 4.1596 0 0 0 4135.8225 3153.7646 Z M 4104.3268 3134.0796 A 4.1596 4.1596 0 0 0 4108.4864 3129.92 4.1596 4.1596 0 0 0 4104.3268 3125.7604 4.1596 4.1596 0 0 0 4100.1672 3129.92 4.1596 4.1596 0 0 0 4104.3268 3134.0796 Z M 4125.98 3134.0796 A 4.1596 4.1596 0 0 0 4130.1396 3129.92 4.1596 4.1596 0 0 0 4125.98 3125.7604 4.1596 4.1596 0 0 0 4121.8204 3129.92 4.1596 4.1596 0 0 0 4125.98 3134.0796 Z M 4056.8604 3149.605 A 4.1596 4.1596 0 0 0 4061.02 3153.7646 4.1596 4.1596 0 0 0 4065.1796 3149.605 4.1596 4.1596 0 0 0 4061.02 3145.4454 4.1596 4.1596 0 0 0 4056.8604 3149.605 Z M 4100.1672 3149.605 A 4.1596 4.1596 0 0 0 4104.3268 3153.7646 4.1596 4.1596 0 0 0 4108.4864 3149.605 4.1596 4.1596 0 0 0 4104.3268 3145.4454 4.1596 4.1596 0 0 0 4100.1672 3149.605 Z M 4092.5157 3153.7646 A 4.1596 4.1596 0 0 0 4096.6753 3149.605 4.1596 4.1596 0 0 0 4092.5157 3145.4454 4.1596 4.1596 0 0 0 4088.3561 3149.605 4.1596 4.1596 0 0 0 4092.5157 3153.7646 Z M 4082.6732 3134.0796 A 4.1596 4.1596 0 0 0 4086.8328 3129.92 4.1596 4.1596 0 0 0 4082.6732 3125.7604 4.1596 4.1596 0 0 0 4078.5136 3129.92 4.1596 4.1596 0 0 0 4082.6732 3134.0796 Z M 4003.88385 3088.08551 A 4.5533 4.5533 0 0 0 4001.82561 3090.14375 L 4003.88385 3090.14375 4003.88385 3088.08551 Z M 4003.88385 3096.24529 L 4003.88385 3094.18705 4001.82561 3094.18705 A 4.5533 4.5533 0 0 0 4003.88385 3096.24529 Z M 4009.98539 3090.14375 A 4.5533 4.5533 0 0 0 4007.92715 3088.08551 L 4007.92715 3090.14375 4009.98539 3090.14375 Z M 4007.92715 3094.18705 L 4007.92715 3096.24529 A 4.5533 4.5533 0 0 0 4009.98539 3094.18705 L 4007.92715 3094.18705 Z M 4117.90726 3147.7802 A 4.1596 4.1596 0 0 0 4115.9941 3145.86704 L 4115.9941 3147.7802 4117.90726 3147.7802 Z M 4112.3445 3126.18204 A 4.1596 4.1596 0 0 0 4110.43134 3128.0952 L 4112.3445 3128.0952 4112.3445 3126.18204 Z M 4110.43134 3131.7448 A 4.1596 4.1596 0 0 0 4112.3445 3133.65796 L 4112.3445 3131.7448 4110.43134 3131.7448 Z M 4115.9941 3151.4298 L 4115.9941 3153.34296 A 4.1596 4.1596 0 0 0 4117.90726 3151.4298 L 4115.9941 3151.4298 Z M 4117.90726 3128.0952 A 4.1596 4.1596 0 0 0 4115.9941 3126.18204 L 4115.9941 3128.0952 4117.90726 3128.0952 Z M 4115.9941 3133.65796 A 4.1596 4.1596 0 0 0 4117.90726 3131.7448 L 4115.9941 3131.7448 4115.9941 3133.65796 Z M 4112.3445 3147.7802 L 4112.3445 3145.86704 A 4.1596 4.1596 0 0 0 4110.43134 3147.7802 L 4112.3445 3147.7802 Z M 4110.43134 3151.4298 A 4.1596 4.1596 0 0 0 4112.3445 3153.34296 L 4112.3445 3151.4298 4110.43134 3151.4298 Z M 4069.0377 3153.34296 L 4069.0377 3151.4298 4067.12454 3151.4298 A 4.1596 4.1596 0 0 0 4069.0377 3153.34296 Z M 4069.0377 3147.7802 L 4069.0377 3145.86704 A 4.1596 4.1596 0 0 0 4067.12454 3147.7802 L 4069.0377 3147.7802 Z M 4069.0377 3128.0952 L 4069.0377 3126.18204 A 4.1596 4.1596 0 0 0 4067.12454 3128.0952 L 4069.0377 3128.0952 Z M 4067.12454 3131.7448 A 4.1596 4.1596 0 0 0 4069.0377 3133.65796 L 4069.0377 3131.7448 4067.12454 3131.7448 Z M 4072.6873 3133.65796 A 4.1596 4.1596 0 0 0 4074.60046 3131.7448 L 4072.6873 3131.7448 4072.6873 3133.65796 Z M 4072.6873 3126.18204 L 4072.6873 3128.0952 4074.60046 3128.0952 A 4.1596 4.1596 0 0 0 4072.6873 3126.18204 Z M 4072.6873 3151.4298 L 4072.6873 3153.34296 A 4.1596 4.1596 0 0 0 4074.60046 3151.4298 L 4072.6873 3151.4298 Z M 4072.6873 3145.86704 L 4072.6873 3147.7802 4074.60046 3147.7802 A 4.1596 4.1596 0 0 0 4072.6873 3145.86704 Z " stroke-width="0" layerid="2" attachedcopperid="gge32392" c_shapetype="line" id="gge32392_0" class=""></path><polyline points="4094.9803 3010.3348 4094.9803 3024.4803 4099.5 3029" stroke-width="1.5748"  stroke-linecap="round" fill="none" layerid="2" net="SS" id="gge35928" locked="0" /><polyline points="4099.5 3029 4079.2676 3029 4064.9606 3043.307 4052.658 3043.307" stroke-width="1.5748"  stroke-linecap="round" fill="none" layerid="2" net="SS" id="gge32466" locked="0" /><polyline points="4052.658 3048.721 4070.3735 3048.721 4085.1377 3033.9568 4106.0435 3033.9568 4115 3025 4142 3025" stroke-width="1.5748"  stroke-linecap="round" fill="none" layerid="2" net="INT" id="gge33121" locked="0" /><polyline points="4089.5669 3038.386 4089.5669 3068.4061 4026.575 3131.398" stroke-width="1.5748"  stroke-linecap="round" fill="none" layerid="2" net="UPDI" id="gge34001" locked="0" /><polyline points="4092.52 3129.92 4092.52 3132.88 4096.95 3137.3 4131.4 3137.3 4135.82 3132.88 4135.82 3129.92" stroke-width="1.5748"  stroke-linecap="round" fill="none" layerid="2" net="CANH" id="gge35914" locked="0" /><polyline points="4082.68 3149.6 4082.68 3146.16 4086.12 3142.72 4122.05 3142.72 4125.98 3146.65 4125.98 3149.6" stroke-width="1.5748"  stroke-linecap="round" fill="none" layerid="2" net="CANL" id="gge35913" locked="0" /><g c_partid="part_pcbtext" c_etype="" c_origin="4072.343,3159.449" c_rotation="0" c_mirror="1" id="gge35963" locked="0" layerid="4" c_shapetype="group" ><path c_fontsize="3.937" c_fontfamily="" c_text="-  +" d="M 4072.3425 3157.6234 L 4069.1213 3157.6234 M 4060.8178 3156.0128 L 4060.8178 3159.234 M 4062.4284 3157.6234 L 4059.2072 3157.6234" fill="none"  stroke-width="0.6"  /></g><g c_partid="part_pcbtext" c_etype="" c_origin="4115.65,3159.449" c_rotation="0" c_mirror="1" id="gge35970" locked="0" layerid="4" c_shapetype="group" ><path c_fontsize="3.937" c_fontfamily="" c_text="-  +" d="M 4115.6496 3157.6236 L 4112.4284 3157.6236 M 4104.1249 3156.013 L 4104.1249 3159.2342 M 4105.7355 3157.6236 L 4102.5143 3157.6236" fill="none"  stroke-width="0.6"  /></g><g c_partid="part_pcbtext" c_etype="" c_origin="4094.488,3159.449" c_rotation="0" c_mirror="1" id="gge35974" locked="0" layerid="4" c_shapetype="group" ><path c_fontsize="3.937" c_fontfamily="" c_text="H  L" d="M 4094.488 3155.476 L 4094.488 3159.234 M 4091.9826 3155.476 L 4091.9826 3159.234 M 4094.488 3157.2655 L 4091.9826 3157.2655 M 4085.2897 3155.476 L 4085.2897 3159.234 M 4085.2897 3159.234 L 4083.1423 3159.234" fill="none"  stroke-width="0.6"  /></g><g c_partid="part_pcbtext" c_etype="" c_origin="4135.827,3159.449" c_rotation="0" c_mirror="1" id="gge35978" locked="0" layerid="4" c_shapetype="group" ><path c_fontsize="3.937" c_fontfamily="" c_text="H  L" d="M 4135.8267 3155.4761 L 4135.8267 3159.2342 M 4133.3213 3155.4761 L 4133.3213 3159.2342 M 4135.8267 3157.2657 L 4133.3213 3157.2657 M 4126.6284 3155.4761 L 4126.6284 3159.2342 M 4126.6284 3159.2342 L 4124.481 3159.2342" fill="none"  stroke-width="0.6"  /></g><g c_partid="part_pad" c_etype="pinpart" c_origin="4005.906,3022.165" layerid="11" number="1" net="X0Y0" plated ="Y"  id="gge36054" locked="0" c_rotation="270" c_width="7.0866" c_height="7.0866" title="X0Y0" c_shape="RECT" pasteexpansion="0" solderexpansion="0.4"><polygon  c_etype="pad_shell" points="4009.4488 3018.6221 4009.4488 3025.7087 4002.3622 3025.7087 4002.3622 3018.6221" layerid="11" stroke-width="0" /><circle c_etype="pad_hole" cx="4005.9055" cy="3022.1654" r="1.9685" layerid="11" stroke-width="0"/></g><g c_partid="part_pad" c_etype="pinpart" c_origin="4005.906,3032.165" layerid="11" number="2" net="X1Y1" plated ="Y"  id="gge36059" locked="0" c_rotation="270" c_width="7.0866" c_height="7.0866" title="X1Y1" c_shape="ELLIPSE" pasteexpansion="0" solderexpansion="0.4"><ellipse c_etype="pad_shell" cx="4005.906" cy="3032.165" rx="3.5433" ry="3.5433" layerid="11" stroke-width="0"/><circle c_etype="pad_hole" cx="4005.9055" cy="3032.1654" r="1.9685" layerid="11" stroke-width="0"/></g><g c_partid="part_pad" c_etype="pinpart" c_origin="4005.906,3042.165" layerid="11" number="3" net="X2Y2" plated ="Y"  id="gge36064" locked="0" c_rotation="270" c_width="7.0866" c_height="7.0866" title="X2Y2" c_shape="ELLIPSE" pasteexpansion="0" solderexpansion="0.4"><ellipse c_etype="pad_shell" cx="4005.906" cy="3042.165" rx="3.5433" ry="3.5433" layerid="11" stroke-width="0"/><circle c_etype="pad_hole" cx="4005.9055" cy="3042.1654" r="1.9685" layerid="11" stroke-width="0"/></g><g c_partid="part_pad" c_etype="pinpart" c_origin="4005.906,3052.165" layerid="11" number="4" net="X3Y3" plated ="Y"  id="gge36069" locked="0" c_rotation="270" c_width="7.0866" c_height="7.0866" title="X3Y3" c_shape="ELLIPSE" pasteexpansion="0" solderexpansion="0.4"><ellipse c_etype="pad_shell" cx="4005.906" cy="3052.165" rx="3.5433" ry="3.5433" layerid="11" stroke-width="0"/><circle c_etype="pad_hole" cx="4005.9055" cy="3052.1654" r="1.9685" layerid="11" stroke-width="0"/></g><g c_partid="part_pad" c_etype="pinpart" c_origin="4005.906,3062.165" layerid="11" number="5" net="X4Y4" plated ="Y"  id="gge36074" locked="0" c_rotation="270" c_width="7.0866" c_height="7.0866" title="X4Y4" c_shape="ELLIPSE" pasteexpansion="0" solderexpansion="0.4"><ellipse c_etype="pad_shell" cx="4005.906" cy="3062.165" rx="3.5433" ry="3.5433" layerid="11" stroke-width="0"/><circle c_etype="pad_hole" cx="4005.9055" cy="3062.1654" r="1.9685" layerid="11" stroke-width="0"/></g><g c_partid="part_pad" c_etype="pinpart" c_origin="4005.906,3072.165" layerid="11" number="6" net="X5Y5" plated ="Y"  id="gge36079" locked="0" c_rotation="270" c_width="7.0866" c_height="7.0866" title="X5Y5" c_shape="ELLIPSE" pasteexpansion="0" solderexpansion="0.4"><ellipse c_etype="pad_shell" cx="4005.906" cy="3072.165" rx="3.5433" ry="3.5433" layerid="11" stroke-width="0"/><circle c_etype="pad_hole" cx="4005.9055" cy="3072.1654" r="1.9685" layerid="11" stroke-width="0"/></g><g c_partid="part_pad" c_etype="pinpart" c_origin="4005.906,3082.165" layerid="11" number="7" net="VCC" plated ="Y"  id="gge36084" locked="0" c_rotation="270" c_width="7.0866" c_height="7.0866" title="VCC" c_shape="ELLIPSE" pasteexpansion="0" solderexpansion="0.4"><ellipse c_etype="pad_shell" cx="4005.906" cy="3082.165" rx="3.5433" ry="3.5433" layerid="11" stroke-width="0"/><circle c_etype="pad_hole" cx="4005.9055" cy="3082.1654" r="1.9685" layerid="11" stroke-width="0"/></g><g c_partid="part_pad" c_etype="pinpart" c_origin="4005.906,3092.165" layerid="11" number="8" net="GND" plated ="Y"  id="gge36089" locked="0" c_rotation="270" c_width="7.0866" c_height="7.0866" title="GND" c_shape="ELLIPSE" pasteexpansion="0" solderexpansion="0.4"><ellipse c_etype="pad_shell" cx="4005.906" cy="3092.165" rx="3.5433" ry="3.5433" layerid="11" stroke-width="0"/><circle c_etype="pad_hole" cx="4005.9055" cy="3092.1654" r="1.9685" layerid="11" stroke-width="0"/></g><g c_partid="part_pad" c_etype="pinpart" c_origin="4125.98,3129.92" layerid="11" number="1" net="CANL" plated ="Y"  id="gge35769" locked="0" c_rotation="0" c_width="6.2992" c_height="6.2992" title="CANL" c_shape="ELLIPSE" pasteexpansion="0" solderexpansion="0.4"><ellipse c_etype="pad_shell" cx="4125.98" cy="3129.92" rx="3.1496" ry="3.1496" layerid="11" stroke-width="0"/><circle c_etype="pad_hole" cx="4125.98" cy="3129.92" r="1.9685" layerid="11" stroke-width="0"/></g><g c_partid="part_pad" c_etype="pinpart" c_origin="4135.823,3129.92" layerid="11" number="2" net="CANH" plated ="Y"  id="gge35774" locked="0" c_rotation="0" c_width="6.2992" c_height="6.2992" title="CANH" c_shape="ELLIPSE" pasteexpansion="0" solderexpansion="0.4"><ellipse c_etype="pad_shell" cx="4135.823" cy="3129.92" rx="3.1496" ry="3.1496" layerid="11" stroke-width="0"/><circle c_etype="pad_hole" cx="4135.8225" cy="3129.92" r="1.9685" layerid="11" stroke-width="0"/></g><g c_partid="part_pad" c_etype="pinpart" c_origin="4135.823,3149.605" layerid="11" number="2" net="CANH" plated ="Y"  id="gge35779" locked="0" c_rotation="0" c_width="6.2992" c_height="6.2992" title="CANH" c_shape="ELLIPSE" pasteexpansion="0" solderexpansion="0.4"><ellipse c_etype="pad_shell" cx="4135.823" cy="3149.605" rx="3.1496" ry="3.1496" layerid="11" stroke-width="0"/><circle c_etype="pad_hole" cx="4135.8225" cy="3149.605" r="1.9685" layerid="11" stroke-width="0"/></g><g c_partid="part_pad" c_etype="pinpart" c_origin="4125.98,3149.605" layerid="11" number="1" net="CANL" plated ="Y"  id="gge35784" locked="0" c_rotation="0" c_width="6.2992" c_height="6.2992" title="CANL" c_shape="ELLIPSE" pasteexpansion="0" solderexpansion="0.4"><ellipse c_etype="pad_shell" cx="4125.98" cy="3149.605" rx="3.1496" ry="3.1496" layerid="11" stroke-width="0"/><circle c_etype="pad_hole" cx="4125.98" cy="3149.605" r="1.9685" layerid="11" stroke-width="0"/></g><g c_partid="part_pad" c_etype="pinpart" c_origin="4104.327,3129.92" layerid="11" number="1" net="+5V" plated ="Y"  id="gge35798" locked="0" c_rotation="0" c_width="6.2992" c_height="6.2992" title="+5V" c_shape="ELLIPSE" pasteexpansion="0" solderexpansion="0.4"><ellipse c_etype="pad_shell" cx="4104.327" cy="3129.92" rx="3.1496" ry="3.1496" layerid="11" stroke-width="0"/><circle c_etype="pad_hole" cx="4104.3268" cy="3129.92" r="1.9685" layerid="11" stroke-width="0"/></g><g c_partid="part_pad" c_etype="pinpart" c_origin="4114.17,3129.92" layerid="11" number="2" net="GND" plated ="Y"  id="gge35803" locked="0" c_rotation="0" c_width="6.2992" c_height="6.2992" title="GND" c_shape="ELLIPSE" pasteexpansion="0" solderexpansion="0.4"><ellipse c_etype="pad_shell" cx="4114.17" cy="3129.92" rx="3.1496" ry="3.1496" layerid="11" stroke-width="0"/><circle c_etype="pad_hole" cx="4114.1693" cy="3129.92" r="1.9685" layerid="11" stroke-width="0"/></g><g c_partid="part_pad" c_etype="pinpart" c_origin="4114.17,3149.605" layerid="11" number="2" net="GND" plated ="Y"  id="gge35808" locked="0" c_rotation="0" c_width="6.2992" c_height="6.2992" title="GND" c_shape="ELLIPSE" pasteexpansion="0" solderexpansion="0.4"><ellipse c_etype="pad_shell" cx="4114.17" cy="3149.605" rx="3.1496" ry="3.1496" layerid="11" stroke-width="0"/><circle c_etype="pad_hole" cx="4114.1693" cy="3149.605" r="1.9685" layerid="11" stroke-width="0"/></g><g c_partid="part_pad" c_etype="pinpart" c_origin="4104.327,3149.605" layerid="11" number="1" net="+5V" plated ="Y"  id="gge35813" locked="0" c_rotation="0" c_width="6.2992" c_height="6.2992" title="+5V" c_shape="ELLIPSE" pasteexpansion="0" solderexpansion="0.4"><ellipse c_etype="pad_shell" cx="4104.327" cy="3149.605" rx="3.1496" ry="3.1496" layerid="11" stroke-width="0"/><circle c_etype="pad_hole" cx="4104.3268" cy="3149.605" r="1.9685" layerid="11" stroke-width="0"/></g><g c_partid="part_pad" c_etype="pinpart" c_origin="4082.673,3129.92" layerid="11" number="1" net="CANL" plated ="Y"  id="gge35827" locked="0" c_rotation="0" c_width="6.2992" c_height="6.2992" title="CANL" c_shape="ELLIPSE" pasteexpansion="0" solderexpansion="0.4"><ellipse c_etype="pad_shell" cx="4082.673" cy="3129.92" rx="3.1496" ry="3.1496" layerid="11" stroke-width="0"/><circle c_etype="pad_hole" cx="4082.6732" cy="3129.92" r="1.9685" layerid="11" stroke-width="0"/></g><g c_partid="part_pad" c_etype="pinpart" c_origin="4092.516,3129.92" layerid="11" number="2" net="CANH" plated ="Y"  id="gge35832" locked="0" c_rotation="0" c_width="6.2992" c_height="6.2992" title="CANH" c_shape="ELLIPSE" pasteexpansion="0" solderexpansion="0.4"><ellipse c_etype="pad_shell" cx="4092.516" cy="3129.92" rx="3.1496" ry="3.1496" layerid="11" stroke-width="0"/><circle c_etype="pad_hole" cx="4092.5157" cy="3129.92" r="1.9685" layerid="11" stroke-width="0"/></g><g c_partid="part_pad" c_etype="pinpart" c_origin="4092.516,3149.605" layerid="11" number="2" net="CANH" plated ="Y"  id="gge35837" locked="0" c_rotation="0" c_width="6.2992" c_height="6.2992" title="CANH" c_shape="ELLIPSE" pasteexpansion="0" solderexpansion="0.4"><ellipse c_etype="pad_shell" cx="4092.516" cy="3149.605" rx="3.1496" ry="3.1496" layerid="11" stroke-width="0"/><circle c_etype="pad_hole" cx="4092.5157" cy="3149.605" r="1.9685" layerid="11" stroke-width="0"/></g><g c_partid="part_pad" c_etype="pinpart" c_origin="4082.673,3149.605" layerid="11" number="1" net="CANL" plated ="Y"  id="gge35842" locked="0" c_rotation="0" c_width="6.2992" c_height="6.2992" title="CANL" c_shape="ELLIPSE" pasteexpansion="0" solderexpansion="0.4"><ellipse c_etype="pad_shell" cx="4082.673" cy="3149.605" rx="3.1496" ry="3.1496" layerid="11" stroke-width="0"/><circle c_etype="pad_hole" cx="4082.6732" cy="3149.605" r="1.9685" layerid="11" stroke-width="0"/></g><g c_partid="part_pad" c_etype="pinpart" c_origin="4061.02,3129.92" layerid="11" number="1" net="+5V" plated ="Y"  id="gge35856" locked="0" c_rotation="0" c_width="6.2992" c_height="6.2992" title="+5V" c_shape="ELLIPSE" pasteexpansion="0" solderexpansion="0.4"><ellipse c_etype="pad_shell" cx="4061.02" cy="3129.92" rx="3.1496" ry="3.1496" layerid="11" stroke-width="0"/><circle c_etype="pad_hole" cx="4061.02" cy="3129.92" r="1.9685" layerid="11" stroke-width="0"/></g><g c_partid="part_pad" c_etype="pinpart" c_origin="4070.863,3129.92" layerid="11" number="2" net="GND" plated ="Y"  id="gge35861" locked="0" c_rotation="0" c_width="6.2992" c_height="6.2992" title="GND" c_shape="ELLIPSE" pasteexpansion="0" solderexpansion="0.4"><ellipse c_etype="pad_shell" cx="4070.863" cy="3129.92" rx="3.1496" ry="3.1496" layerid="11" stroke-width="0"/><circle c_etype="pad_hole" cx="4070.8625" cy="3129.92" r="1.9685" layerid="11" stroke-width="0"/></g><g c_partid="part_pad" c_etype="pinpart" c_origin="4070.863,3149.605" layerid="11" number="2" net="GND" plated ="Y"  id="gge35866" locked="0" c_rotation="0" c_width="6.2992" c_height="6.2992" title="GND" c_shape="ELLIPSE" pasteexpansion="0" solderexpansion="0.4"><ellipse c_etype="pad_shell" cx="4070.863" cy="3149.605" rx="3.1496" ry="3.1496" layerid="11" stroke-width="0"/><circle c_etype="pad_hole" cx="4070.8625" cy="3149.605" r="1.9685" layerid="11" stroke-width="0"/></g><g c_partid="part_pad" c_etype="pinpart" c_origin="4061.02,3149.605" layerid="11" number="1" net="+5V" plated ="Y"  id="gge35871" locked="0" c_rotation="0" c_width="6.2992" c_height="6.2992" title="+5V" c_shape="ELLIPSE" pasteexpansion="0" solderexpansion="0.4"><ellipse c_etype="pad_shell" cx="4061.02" cy="3149.605" rx="3.1496" ry="3.1496" layerid="11" stroke-width="0"/><circle c_etype="pad_hole" cx="4061.02" cy="3149.605" r="1.9685" layerid="11" stroke-width="0"/></g><g c_partid="part_via" c_etype="pinpart" c_shapetype="group" net="GND" c_origin="4120.079,3029.036" layerid="11" id="gge32816" locked="0" solderexpansion=""><circle cx="4120.079" cy="3029.036" r="1.2" stroke-width="0" c_etype="pad_shell"/><circle cx="4120.079" cy="3029.036" r="0.6"  stroke-width="0" c_etype="pad_hole"/></g><g c_partid="part_via" c_etype="pinpart" c_shapetype="group" net="GND" c_origin="4120.079,3052.658" layerid="11" id="gge32819" locked="0" solderexpansion=""><circle cx="4120.079" cy="3052.658" r="1.2" stroke-width="0" c_etype="pad_shell"/><circle cx="4120.079" cy="3052.658" r="0.6"  stroke-width="0" c_etype="pad_hole"/></g><g c_partid="part_via" c_etype="pinpart" c_shapetype="group" net="GND" c_origin="4026.083,3123.524" layerid="11" id="gge32842" locked="0" solderexpansion=""><circle cx="4026.083" cy="3123.524" r="1.2" stroke-width="0" c_etype="pad_shell"/><circle cx="4026.083" cy="3123.524" r="0.6"  stroke-width="0" c_etype="pad_hole"/></g><g c_partid="part_via" c_etype="pinpart" c_shapetype="group" net="SS" c_origin="4099.5,3029" layerid="11" id="gge32851" locked="0" solderexpansion=""><circle cx="4099.5" cy="3029" r="1.2" stroke-width="0" c_etype="pad_shell"/><circle cx="4099.5" cy="3029" r="0.6"  stroke-width="0" c_etype="pad_hole"/></g><g c_partid="part_via" c_etype="pinpart" c_shapetype="group" net="SS" c_origin="4052.658,3043.307" layerid="11" id="gge32858" locked="0" solderexpansion=""><circle cx="4052.658" cy="3043.307" r="1.2" stroke-width="0" c_etype="pad_shell"/><circle cx="4052.658" cy="3043.307" r="0.6"  stroke-width="0" c_etype="pad_hole"/></g><g c_partid="part_via" c_etype="pinpart" c_shapetype="group" net="GND" c_origin="4083.661,3010.335" layerid="11" id="gge32866" locked="0" solderexpansion=""><circle cx="4083.661" cy="3010.335" r="1.2" stroke-width="0" c_etype="pad_shell"/><circle cx="4083.661" cy="3010.335" r="0.6"  stroke-width="0" c_etype="pad_hole"/></g><g c_partid="part_via" c_etype="pinpart" c_shapetype="group" net="GND" c_origin="4155.512,3038.386" layerid="11" id="gge32875" locked="0" solderexpansion=""><circle cx="4155.512" cy="3038.386" r="1.2" stroke-width="0" c_etype="pad_shell"/><circle cx="4155.512" cy="3038.386" r="0.6"  stroke-width="0" c_etype="pad_hole"/></g><g c_partid="part_via" c_etype="pinpart" c_shapetype="group" net="INT" c_origin="4142,3025" layerid="11" id="gge33101" locked="0" solderexpansion=""><circle cx="4142" cy="3025" r="1.2" stroke-width="0" c_etype="pad_shell"/><circle cx="4142" cy="3025" r="0.6"  stroke-width="0" c_etype="pad_hole"/></g><g c_partid="part_via" c_etype="pinpart" c_shapetype="group" net="INT" c_origin="4052.658,3048.721" layerid="11" id="gge33109" locked="0" solderexpansion=""><circle cx="4052.658" cy="3048.721" r="1.2" stroke-width="0" c_etype="pad_shell"/><circle cx="4052.658" cy="3048.721" r="0.6"  stroke-width="0" c_etype="pad_hole"/></g><g c_partid="part_via" c_etype="pinpart" c_shapetype="group" net="GND" c_origin="4127.953,3112.205" layerid="11" id="gge33379" locked="0" solderexpansion=""><circle cx="4127.953" cy="3112.205" r="1.2" stroke-width="0" c_etype="pad_shell"/><circle cx="4127.953" cy="3112.205" r="0.6"  stroke-width="0" c_etype="pad_hole"/></g><g c_partid="part_via" c_etype="pinpart" c_shapetype="group" net="UPDI" c_origin="4026.575,3131.398" layerid="11" id="gge33992" locked="0" solderexpansion=""><circle cx="4026.575" cy="3131.398" r="1.2" stroke-width="0" c_etype="pad_shell"/><circle cx="4026.575" cy="3131.398" r="0.6"  stroke-width="0" c_etype="pad_hole"/></g><g c_partid="part_via" c_etype="pinpart" c_shapetype="group" net="UPDI" c_origin="4089.567,3038.386" layerid="11" id="gge33998" locked="0" solderexpansion=""><circle cx="4089.567" cy="3038.386" r="1.2" stroke-width="0" c_etype="pad_shell"/><circle cx="4089.567" cy="3038.386" r="0.6"  stroke-width="0" c_etype="pad_hole"/></g><g c_partid="part_via" c_etype="pinpart" c_shapetype="group" net="SS" c_origin="4094.98,3010.335" layerid="11" id="gge35927" locked="0" solderexpansion=""><circle cx="4094.98" cy="3010.335" r="1.2" stroke-width="0" c_etype="pad_shell"/><circle cx="4094.98" cy="3010.335" r="0.6"  stroke-width="0" c_etype="pad_hole"/></g><g c_partid="part_hole" c_etype="pinpart" c_shapetype="group" c_origin="4153.543,3007.874" layerid="11" id="gge5355" locked="0" ><circle cx="4153.543" cy="3007.874" r="4"  stroke-width="0" /></g><g c_partid="part_hole" c_etype="pinpart" c_shapetype="group" c_origin="4007.874,3007.874" layerid="11" id="gge5359" locked="0" ><circle cx="4007.874" cy="3007.874" r="4"  stroke-width="0" /></g><g c_partid="part_hole" c_etype="pinpart" c_shapetype="group" c_origin="4007.874,3153.543" layerid="11" id="gge5363" locked="0" ><circle cx="4007.874" cy="3153.543" r="4"  stroke-width="0" /></g><g c_partid="part_hole" c_etype="pinpart" c_shapetype="group" c_origin="4153.543,3153.543" layerid="11" id="gge5367" locked="0" ><circle cx="4153.543" cy="3153.543" r="4"  stroke-width="0" /></g><polyline points="4000 3153.5433 4000 3007.874" stroke-width="1"  stroke-linecap="round" fill="none" layerid="10" net="" id="gge33037" locked="0" /><polyline points="4153.5433 3161.4173 4007.874 3161.4173" stroke-width="1"  stroke-linecap="round" fill="none" layerid="10" net="" id="gge33035" locked="0" /><polyline points="4161.4173 3007.874 4161.4173 3153.5433" stroke-width="1"  stroke-linecap="round" fill="none" layerid="10" net="" id="gge33033" locked="0" /><polyline points="4007.874 3000 4153.5433 3000" stroke-width="1"  stroke-linecap="round" fill="none" layerid="10" net="" id="gge33031" locked="0" /><path d="M4153.5433 3000A7.874 7.874 0 0 1 4161.4173 3007.874" locked="0"  fill="none" stroke-width="1" c_helper_type="arc2" net="" layerid="10" id="gge33032" /><path d="M4161.4173 3153.5433A7.874 7.874 0 0 1 4153.5433 3161.4173" locked="0"  fill="none" stroke-width="1" c_helper_type="arc2" net="" layerid="10" id="gge33034" /><path d="M4007.874 3161.4173A7.874 7.874 0 0 1 4000 3153.5433" locked="0"  fill="none" stroke-width="1" c_helper_type="arc2" net="" layerid="10" id="gge33036" /><path d="M4000 3007.874A7.874 7.874 0 0 1 4007.874 3000" locked="0"  fill="none" stroke-width="1" c_helper_type="arc2" net="" layerid="10" id="gge33038" /></svg>